,X0,X1,X2,X3,X4,X5,X6,X7,X8,X9,X10,X11,X12,X13,X14,X15,X16,X17,X18,X19,X20,X21,X22,X23,X24,X25,X26,X27,X28,X29,X30,X31,X32,X33,X34,X35,X36,X37,X38,X39,X40,X41,X42,X43,X44,X45,X46,X47,X48,X49,X50,X51,X52,X53,X54,X55,X56,X57,X58,X59,X60,X61,X62,X63,X64,X65,X66,X67,X68,X69,X70,X71,X72,X73,X74,X75,X76,X77,X78,X79,X80,X81,X82,X83,X84,X85,X86,X87,X88,X89,X90,X91,X92,X93,X94,X95,X96,X97,X98,X99,X100
Anhui,0.326732673,0.326732673,0.326732673,0.326732673,0.326732673,0.326732673,0.326732673,0.326732673,0.326732673,0.326732673,0.326732673,0.326732673,0.326732673,0.326732673,0.326732673,0.326732673,0.326732673,0.326732673,0.326732673,0.326732673,0.326732673,0.326732673,0.326732673,0.326732673,0.326732673,0.326732673,0.326732673,0.326732673,0.326732673,0.326732673,0.326732673,0.326732673,0.326732673,0.326732673,0.326732673,0.326732673,0.326732673,0.326732673,0.326732673,0.326732673,0.326732673,0.326732673,0.326732673,0.326732673,0.326732673,0.326732673,0.326732673,0.326732673,0.326732673,0.326732673,0.326732673,0.326732673,0.326732673,0.326732673,0.326732673,0.326732673,0.326732673,0.326732673,0.326732673,0.326732673,0.326732673,0.326732673,0.326732673,0.326732673,0.326732673,0.326732673,0.326732673,0.326732673,0.326732673,0.326732673,0.326732673,0.326732673,0.326732673,0.326732673,0.326732673,0.326732673,0.326732673,0.326732673,0.326732673,0.326732673,0.326732673,0.326732673,0.326732673,0.326732673,0.326732673,0.326732673,0.326732673,0.326732673,0.326732673,0.326732673,0.326732673,0.326732673,0.326732673,0.326732673,0.326732673,0.326732673,0.326732673,0.326732673,0.326732673,0.326732673,0.326732673
Beijing,4.655445545,4.655445545,4.655445545,4.655445545,4.655445545,4.655445545,4.655445545,4.655445545,4.655445545,4.655445545,4.655445545,4.655445545,4.655445545,4.655445545,4.655445545,4.655445545,4.655445545,4.655445545,4.655445545,4.655445545,4.655445545,4.655445545,4.655445545,4.655445545,4.655445545,4.655445545,4.655445545,4.655445545,4.655445545,4.655445545,4.655445545,4.655445545,4.655445545,4.655445545,4.655445545,4.655445545,4.655445545,4.655445545,4.655445545,4.655445545,4.655445545,4.655445545,4.655445545,4.655445545,4.655445545,4.655445545,4.655445545,4.655445545,4.655445545,4.655445545,4.655445545,4.655445545,4.655445545,4.655445545,4.655445545,4.655445545,4.655445545,4.655445545,4.655445545,4.655445545,4.655445545,4.655445545,4.655445545,4.655445545,4.655445545,4.655445545,4.655445545,4.655445545,4.655445545,4.655445545,4.655445545,4.655445545,4.655445545,4.655445545,4.655445545,4.655445545,4.655445545,4.655445545,4.655445545,4.655445545,4.655445545,4.655445545,4.655445545,4.655445545,4.655445545,4.655445545,4.655445545,4.655445545,4.655445545,4.655445545,4.655445545,4.655445545,4.655445545,4.655445545,4.655445545,4.655445545,4.655445545,4.655445545,4.655445545,4.655445545,4.655445545
Chongqing,0.198019802,0.198019802,0.198019802,0.198019802,0.198019802,0.198019802,0.198019802,0.198019802,0.198019802,0.198019802,0.198019802,0.198019802,0.198019802,0.198019802,0.198019802,0.198019802,0.198019802,0.198019802,0.198019802,0.198019802,0.198019802,0.198019802,0.198019802,0.198019802,0.198019802,0.198019802,0.198019802,0.198019802,0.198019802,0.198019802,0.198019802,0.198019802,0.198019802,0.198019802,0.198019802,0.198019802,0.198019802,0.198019802,0.198019802,0.198019802,0.198019802,0.198019802,0.198019802,0.198019802,0.198019802,0.198019802,0.198019802,0.198019802,0.198019802,0.198019802,0.198019802,0.198019802,0.198019802,0.198019802,0.198019802,0.198019802,0.198019802,0.198019802,0.198019802,0.198019802,0.198019802,0.198019802,0.198019802,0.198019802,0.198019802,0.198019802,0.198019802,0.198019802,0.198019802,0.198019802,0.198019802,0.198019802,0.198019802,0.198019802,0.198019802,0.198019802,0.198019802,0.198019802,0.198019802,0.198019802,0.198019802,0.198019802,0.198019802,0.198019802,0.198019802,0.198019802,0.198019802,0.198019802,0.198019802,0.198019802,0.198019802,0.198019802,0.198019802,0.198019802,0.198019802,0.198019802,0.198019802,0.198019802,0.198019802,0.198019802,0.198019802
Fujian,12.84356436,12.84356436,12.84356436,12.84356436,12.84356436,12.84356436,12.84356436,12.84356436,12.84356436,12.84356436,12.84356436,12.84356436,12.84356436,12.84356436,12.84356436,12.84356436,12.84356436,12.84356436,12.84356436,12.84356436,12.84356436,12.84356436,12.84356436,12.84356436,12.84356436,12.84356436,12.84356436,12.84356436,12.84356436,12.84356436,12.84356436,12.84356436,12.84356436,12.84356436,12.84356436,12.84356436,12.84356436,12.84356436,12.84356436,12.84356436,12.84356436,12.84356436,12.84356436,12.84356436,12.84356436,12.84356436,12.84356436,12.84356436,12.84356436,12.84356436,12.84356436,12.84356436,12.84356436,12.84356436,12.84356436,12.84356436,12.84356436,12.84356436,12.84356436,12.84356436,12.84356436,12.84356436,12.84356436,12.84356436,12.84356436,12.84356436,12.84356436,12.84356436,12.84356436,12.84356436,12.84356436,12.84356436,12.84356436,12.84356436,12.84356436,12.84356436,12.84356436,12.84356436,12.84356436,12.84356436,12.84356436,12.84356436,12.84356436,12.84356436,12.84356436,12.84356436,12.84356436,12.84356436,12.84356436,12.84356436,12.84356436,12.84356436,12.84356436,12.84356436,12.84356436,12.84356436,12.84356436,12.84356436,12.84356436,12.84356436,12.84356436
Gansu,0.023762376,0.023762376,0.023762376,0.023762376,0.023762376,0.023762376,0.023762376,0.023762376,0.023762376,0.023762376,0.023762376,0.023762376,0.023762376,0.023762376,0.023762376,0.023762376,0.023762376,0.023762376,0.023762376,0.023762376,0.023762376,0.023762376,0.023762376,0.023762376,0.023762376,0.023762376,0.023762376,0.023762376,0.023762376,0.023762376,0.023762376,0.023762376,0.023762376,0.023762376,0.023762376,0.023762376,0.023762376,0.023762376,0.023762376,0.023762376,0.023762376,0.023762376,0.023762376,0.023762376,0.023762376,0.023762376,0.023762376,0.023762376,0.023762376,0.023762376,0.023762376,0.023762376,0.023762376,0.023762376,0.023762376,0.023762376,0.023762376,0.023762376,0.023762376,0.023762376,0.023762376,0.023762376,0.023762376,0.023762376,0.023762376,0.023762376,0.023762376,0.023762376,0.023762376,0.023762376,0.023762376,0.023762376,0.023762376,0.023762376,0.023762376,0.023762376,0.023762376,0.023762376,0.023762376,0.023762376,0.023762376,0.023762376,0.023762376,0.023762376,0.023762376,0.023762376,0.023762376,0.023762376,0.023762376,0.023762376,0.023762376,0.023762376,0.023762376,0.023762376,0.023762376,0.023762376,0.023762376,0.023762376,0.023762376,0.023762376,0.023762376
Guangdong,3.075247525,3.075247525,3.075247525,3.075247525,3.075247525,3.075247525,3.075247525,3.075247525,3.075247525,3.075247525,3.075247525,3.075247525,3.075247525,3.075247525,3.075247525,3.075247525,3.075247525,3.075247525,3.075247525,3.075247525,3.075247525,3.075247525,3.075247525,3.075247525,3.075247525,3.075247525,3.075247525,3.075247525,3.075247525,3.075247525,3.075247525,3.075247525,3.075247525,3.075247525,3.075247525,3.075247525,3.075247525,3.075247525,3.075247525,3.075247525,3.075247525,3.075247525,3.075247525,3.075247525,3.075247525,3.075247525,3.075247525,3.075247525,3.075247525,3.075247525,3.075247525,3.075247525,3.075247525,3.075247525,3.075247525,3.075247525,3.075247525,3.075247525,3.075247525,3.075247525,3.075247525,3.075247525,3.075247525,3.075247525,3.075247525,3.075247525,3.075247525,3.075247525,3.075247525,3.075247525,3.075247525,3.075247525,3.075247525,3.075247525,3.075247525,3.075247525,3.075247525,3.075247525,3.075247525,3.075247525,3.075247525,3.075247525,3.075247525,3.075247525,3.075247525,3.075247525,3.075247525,3.075247525,3.075247525,3.075247525,3.075247525,3.075247525,3.075247525,3.075247525,3.075247525,3.075247525,3.075247525,3.075247525,3.075247525,3.075247525,3.075247525
Guangxi,0.435643564,0.435643564,0.435643564,0.435643564,0.435643564,0.435643564,0.435643564,0.435643564,0.435643564,0.435643564,0.435643564,0.435643564,0.435643564,0.435643564,0.435643564,0.435643564,0.435643564,0.435643564,0.435643564,0.435643564,0.435643564,0.435643564,0.435643564,0.435643564,0.435643564,0.435643564,0.435643564,0.435643564,0.435643564,0.435643564,0.435643564,0.435643564,0.435643564,0.435643564,0.435643564,0.435643564,0.435643564,0.435643564,0.435643564,0.435643564,0.435643564,0.435643564,0.435643564,0.435643564,0.435643564,0.435643564,0.435643564,0.435643564,0.435643564,0.435643564,0.435643564,0.435643564,0.435643564,0.435643564,0.435643564,0.435643564,0.435643564,0.435643564,0.435643564,0.435643564,0.435643564,0.435643564,0.435643564,0.435643564,0.435643564,0.435643564,0.435643564,0.435643564,0.435643564,0.435643564,0.435643564,0.435643564,0.435643564,0.435643564,0.435643564,0.435643564,0.435643564,0.435643564,0.435643564,0.435643564,0.435643564,0.435643564,0.435643564,0.435643564,0.435643564,0.435643564,0.435643564,0.435643564,0.435643564,0.435643564,0.435643564,0.435643564,0.435643564,0.435643564,0.435643564,0.435643564,0.435643564,0.435643564,0.435643564,0.435643564,0.435643564
Guizhou,0.100990099,0.100990099,0.100990099,0.100990099,0.100990099,0.100990099,0.100990099,0.100990099,0.100990099,0.100990099,0.100990099,0.100990099,0.100990099,0.100990099,0.100990099,0.100990099,0.100990099,0.100990099,0.100990099,0.100990099,0.100990099,0.100990099,0.100990099,0.100990099,0.100990099,0.100990099,0.100990099,0.100990099,0.100990099,0.100990099,0.100990099,0.100990099,0.100990099,0.100990099,0.100990099,0.100990099,0.100990099,0.100990099,0.100990099,0.100990099,0.100990099,0.100990099,0.100990099,0.100990099,0.100990099,0.100990099,0.100990099,0.100990099,0.100990099,0.100990099,0.100990099,0.100990099,0.100990099,0.100990099,0.100990099,0.100990099,0.100990099,0.100990099,0.100990099,0.100990099,0.100990099,0.100990099,0.100990099,0.100990099,0.100990099,0.100990099,0.100990099,0.100990099,0.100990099,0.100990099,0.100990099,0.100990099,0.100990099,0.100990099,0.100990099,0.100990099,0.100990099,0.100990099,0.100990099,0.100990099,0.100990099,0.100990099,0.100990099,0.100990099,0.100990099,0.100990099,0.100990099,0.100990099,0.100990099,0.100990099,0.100990099,0.100990099,0.100990099,0.100990099,0.100990099,0.100990099,0.100990099,0.100990099,0.100990099,0.100990099,0.100990099
Hainan,0.205940594,0.205940594,0.205940594,0.205940594,0.205940594,0.205940594,0.205940594,0.205940594,0.205940594,0.205940594,0.205940594,0.205940594,0.205940594,0.205940594,0.205940594,0.205940594,0.205940594,0.205940594,0.205940594,0.205940594,0.205940594,0.205940594,0.205940594,0.205940594,0.205940594,0.205940594,0.205940594,0.205940594,0.205940594,0.205940594,0.205940594,0.205940594,0.205940594,0.205940594,0.205940594,0.205940594,0.205940594,0.205940594,0.205940594,0.205940594,0.205940594,0.205940594,0.205940594,0.205940594,0.205940594,0.205940594,0.205940594,0.205940594,0.205940594,0.205940594,0.205940594,0.205940594,0.205940594,0.205940594,0.205940594,0.205940594,0.205940594,0.205940594,0.205940594,0.205940594,0.205940594,0.205940594,0.205940594,0.205940594,0.205940594,0.205940594,0.205940594,0.205940594,0.205940594,0.205940594,0.205940594,0.205940594,0.205940594,0.205940594,0.205940594,0.205940594,0.205940594,0.205940594,0.205940594,0.205940594,0.205940594,0.205940594,0.205940594,0.205940594,0.205940594,0.205940594,0.205940594,0.205940594,0.205940594,0.205940594,0.205940594,0.205940594,0.205940594,0.205940594,0.205940594,0.205940594,0.205940594,0.205940594,0.205940594,0.205940594,0.205940594
Hebei,0.221782178,0.221782178,0.221782178,0.221782178,0.221782178,0.221782178,0.221782178,0.221782178,0.221782178,0.221782178,0.221782178,0.221782178,0.221782178,0.221782178,0.221782178,0.221782178,0.221782178,0.221782178,0.221782178,0.221782178,0.221782178,0.221782178,0.221782178,0.221782178,0.221782178,0.221782178,0.221782178,0.221782178,0.221782178,0.221782178,0.221782178,0.221782178,0.221782178,0.221782178,0.221782178,0.221782178,0.221782178,0.221782178,0.221782178,0.221782178,0.221782178,0.221782178,0.221782178,0.221782178,0.221782178,0.221782178,0.221782178,0.221782178,0.221782178,0.221782178,0.221782178,0.221782178,0.221782178,0.221782178,0.221782178,0.221782178,0.221782178,0.221782178,0.221782178,0.221782178,0.221782178,0.221782178,0.221782178,0.221782178,0.221782178,0.221782178,0.221782178,0.221782178,0.221782178,0.221782178,0.221782178,0.221782178,0.221782178,0.221782178,0.221782178,0.221782178,0.221782178,0.221782178,0.221782178,0.221782178,0.221782178,0.221782178,0.221782178,0.221782178,0.221782178,0.221782178,0.221782178,0.221782178,0.221782178,0.221782178,0.221782178,0.221782178,0.221782178,0.221782178,0.221782178,0.221782178,0.221782178,0.221782178,0.221782178,0.221782178,0.221782178
Heilongjiang,0.211881188,0.211881188,0.211881188,0.211881188,0.211881188,0.211881188,0.211881188,0.211881188,0.211881188,0.211881188,0.211881188,0.211881188,0.211881188,0.211881188,0.211881188,0.211881188,0.211881188,0.211881188,0.211881188,0.211881188,0.211881188,0.211881188,0.211881188,0.211881188,0.211881188,0.211881188,0.211881188,0.211881188,0.211881188,0.211881188,0.211881188,0.211881188,0.211881188,0.211881188,0.211881188,0.211881188,0.211881188,0.211881188,0.211881188,0.211881188,0.211881188,0.211881188,0.211881188,0.211881188,0.211881188,0.211881188,0.211881188,0.211881188,0.211881188,0.211881188,0.211881188,0.211881188,0.211881188,0.211881188,0.211881188,0.211881188,0.211881188,0.211881188,0.211881188,0.211881188,0.211881188,0.211881188,0.211881188,0.211881188,0.211881188,0.211881188,0.211881188,0.211881188,0.211881188,0.211881188,0.211881188,0.211881188,0.211881188,0.211881188,0.211881188,0.211881188,0.211881188,0.211881188,0.211881188,0.211881188,0.211881188,0.211881188,0.211881188,0.211881188,0.211881188,0.211881188,0.211881188,0.211881188,0.211881188,0.211881188,0.211881188,0.211881188,0.211881188,0.211881188,0.211881188,0.211881188,0.211881188,0.211881188,0.211881188,0.211881188,0.211881188
Henan,0.37029703,0.37029703,0.37029703,0.37029703,0.37029703,0.37029703,0.37029703,0.37029703,0.37029703,0.37029703,0.37029703,0.37029703,0.37029703,0.37029703,0.37029703,0.37029703,0.37029703,0.37029703,0.37029703,0.37029703,0.37029703,0.37029703,0.37029703,0.37029703,0.37029703,0.37029703,0.37029703,0.37029703,0.37029703,0.37029703,0.37029703,0.37029703,0.37029703,0.37029703,0.37029703,0.37029703,0.37029703,0.37029703,0.37029703,0.37029703,0.37029703,0.37029703,0.37029703,0.37029703,0.37029703,0.37029703,0.37029703,0.37029703,0.37029703,0.37029703,0.37029703,0.37029703,0.37029703,0.37029703,0.37029703,0.37029703,0.37029703,0.37029703,0.37029703,0.37029703,0.37029703,0.37029703,0.37029703,0.37029703,0.37029703,0.37029703,0.37029703,0.37029703,0.37029703,0.37029703,0.37029703,0.37029703,0.37029703,0.37029703,0.37029703,0.37029703,0.37029703,0.37029703,0.37029703,0.37029703,0.37029703,0.37029703,0.37029703,0.37029703,0.37029703,0.37029703,0.37029703,0.37029703,0.37029703,0.37029703,0.37029703,0.37029703,0.37029703,0.37029703,0.37029703,0.37029703,0.37029703,0.37029703,0.37029703,0.37029703,0.37029703
Hubei,0.469306931,0.469306931,0.469306931,0.469306931,0.469306931,0.469306931,0.469306931,0.469306931,0.469306931,0.469306931,0.469306931,0.469306931,0.469306931,0.469306931,0.469306931,0.469306931,0.469306931,0.469306931,0.469306931,0.469306931,0.469306931,0.469306931,0.469306931,0.469306931,0.469306931,0.469306931,0.469306931,0.469306931,0.469306931,0.469306931,0.469306931,0.469306931,0.469306931,0.469306931,0.469306931,0.469306931,0.469306931,0.469306931,0.469306931,0.469306931,0.469306931,0.469306931,0.469306931,0.469306931,0.469306931,0.469306931,0.469306931,0.469306931,0.469306931,0.469306931,0.469306931,0.469306931,0.469306931,0.469306931,0.469306931,0.469306931,0.469306931,0.469306931,0.469306931,0.469306931,0.469306931,0.469306931,0.469306931,0.469306931,0.469306931,0.469306931,0.469306931,0.469306931,0.469306931,0.469306931,0.469306931,0.469306931,0.469306931,0.469306931,0.469306931,0.469306931,0.469306931,0.469306931,0.469306931,0.469306931,0.469306931,0.469306931,0.469306931,0.469306931,0.469306931,0.469306931,0.469306931,0.469306931,0.469306931,0.469306931,0.469306931,0.469306931,0.469306931,0.469306931,0.469306931,0.469306931,0.469306931,0.469306931,0.469306931,0.469306931,0.469306931
Hunan,0.259405941,0.259405941,0.259405941,0.259405941,0.259405941,0.259405941,0.259405941,0.259405941,0.259405941,0.259405941,0.259405941,0.259405941,0.259405941,0.259405941,0.259405941,0.259405941,0.259405941,0.259405941,0.259405941,0.259405941,0.259405941,0.259405941,0.259405941,0.259405941,0.259405941,0.259405941,0.259405941,0.259405941,0.259405941,0.259405941,0.259405941,0.259405941,0.259405941,0.259405941,0.259405941,0.259405941,0.259405941,0.259405941,0.259405941,0.259405941,0.259405941,0.259405941,0.259405941,0.259405941,0.259405941,0.259405941,0.259405941,0.259405941,0.259405941,0.259405941,0.259405941,0.259405941,0.259405941,0.259405941,0.259405941,0.259405941,0.259405941,0.259405941,0.259405941,0.259405941,0.259405941,0.259405941,0.259405941,0.259405941,0.259405941,0.259405941,0.259405941,0.259405941,0.259405941,0.259405941,0.259405941,0.259405941,0.259405941,0.259405941,0.259405941,0.259405941,0.259405941,0.259405941,0.259405941,0.259405941,0.259405941,0.259405941,0.259405941,0.259405941,0.259405941,0.259405941,0.259405941,0.259405941,0.259405941,0.259405941,0.259405941,0.259405941,0.259405941,0.259405941,0.259405941,0.259405941,0.259405941,0.259405941,0.259405941,0.259405941,0.259405941
Inner mongolia,0.18019802,0.18019802,0.18019802,0.18019802,0.18019802,0.18019802,0.18019802,0.18019802,0.18019802,0.18019802,0.18019802,0.18019802,0.18019802,0.18019802,0.18019802,0.18019802,0.18019802,0.18019802,0.18019802,0.18019802,0.18019802,0.18019802,0.18019802,0.18019802,0.18019802,0.18019802,0.18019802,0.18019802,0.18019802,0.18019802,0.18019802,0.18019802,0.18019802,0.18019802,0.18019802,0.18019802,0.18019802,0.18019802,0.18019802,0.18019802,0.18019802,0.18019802,0.18019802,0.18019802,0.18019802,0.18019802,0.18019802,0.18019802,0.18019802,0.18019802,0.18019802,0.18019802,0.18019802,0.18019802,0.18019802,0.18019802,0.18019802,0.18019802,0.18019802,0.18019802,0.18019802,0.18019802,0.18019802,0.18019802,0.18019802,0.18019802,0.18019802,0.18019802,0.18019802,0.18019802,0.18019802,0.18019802,0.18019802,0.18019802,0.18019802,0.18019802,0.18019802,0.18019802,0.18019802,0.18019802,0.18019802,0.18019802,0.18019802,0.18019802,0.18019802,0.18019802,0.18019802,0.18019802,0.18019802,0.18019802,0.18019802,0.18019802,0.18019802,0.18019802,0.18019802,0.18019802,0.18019802,0.18019802,0.18019802,0.18019802,0.18019802
Jiangsu,1.548514851,1.548514851,1.548514851,1.548514851,1.548514851,1.548514851,1.548514851,1.548514851,1.548514851,1.548514851,1.548514851,1.548514851,1.548514851,1.548514851,1.548514851,1.548514851,1.548514851,1.548514851,1.548514851,1.548514851,1.548514851,1.548514851,1.548514851,1.548514851,1.548514851,1.548514851,1.548514851,1.548514851,1.548514851,1.548514851,1.548514851,1.548514851,1.548514851,1.548514851,1.548514851,1.548514851,1.548514851,1.548514851,1.548514851,1.548514851,1.548514851,1.548514851,1.548514851,1.548514851,1.548514851,1.548514851,1.548514851,1.548514851,1.548514851,1.548514851,1.548514851,1.548514851,1.548514851,1.548514851,1.548514851,1.548514851,1.548514851,1.548514851,1.548514851,1.548514851,1.548514851,1.548514851,1.548514851,1.548514851,1.548514851,1.548514851,1.548514851,1.548514851,1.548514851,1.548514851,1.548514851,1.548514851,1.548514851,1.548514851,1.548514851,1.548514851,1.548514851,1.548514851,1.548514851,1.548514851,1.548514851,1.548514851,1.548514851,1.548514851,1.548514851,1.548514851,1.548514851,1.548514851,1.548514851,1.548514851,1.548514851,1.548514851,1.548514851,1.548514851,1.548514851,1.548514851,1.548514851,1.548514851,1.548514851,1.548514851,1.548514851
Jiangxi,0.134653465,0.134653465,0.134653465,0.134653465,0.134653465,0.134653465,0.134653465,0.134653465,0.134653465,0.134653465,0.134653465,0.134653465,0.134653465,0.134653465,0.134653465,0.134653465,0.134653465,0.134653465,0.134653465,0.134653465,0.134653465,0.134653465,0.134653465,0.134653465,0.134653465,0.134653465,0.134653465,0.134653465,0.134653465,0.134653465,0.134653465,0.134653465,0.134653465,0.134653465,0.134653465,0.134653465,0.134653465,0.134653465,0.134653465,0.134653465,0.134653465,0.134653465,0.134653465,0.134653465,0.134653465,0.134653465,0.134653465,0.134653465,0.134653465,0.134653465,0.134653465,0.134653465,0.134653465,0.134653465,0.134653465,0.134653465,0.134653465,0.134653465,0.134653465,0.134653465,0.134653465,0.134653465,0.134653465,0.134653465,0.134653465,0.134653465,0.134653465,0.134653465,0.134653465,0.134653465,0.134653465,0.134653465,0.134653465,0.134653465,0.134653465,0.134653465,0.134653465,0.134653465,0.134653465,0.134653465,0.134653465,0.134653465,0.134653465,0.134653465,0.134653465,0.134653465,0.134653465,0.134653465,0.134653465,0.134653465,0.134653465,0.134653465,0.134653465,0.134653465,0.134653465,0.134653465,0.134653465,0.134653465,0.134653465,0.134653465,0.134653465
Jilin,1.376237624,1.376237624,1.376237624,1.376237624,1.376237624,1.376237624,1.376237624,1.376237624,1.376237624,1.376237624,1.376237624,1.376237624,1.376237624,1.376237624,1.376237624,1.376237624,1.376237624,1.376237624,1.376237624,1.376237624,1.376237624,1.376237624,1.376237624,1.376237624,1.376237624,1.376237624,1.376237624,1.376237624,1.376237624,1.376237624,1.376237624,1.376237624,1.376237624,1.376237624,1.376237624,1.376237624,1.376237624,1.376237624,1.376237624,1.376237624,1.376237624,1.376237624,1.376237624,1.376237624,1.376237624,1.376237624,1.376237624,1.376237624,1.376237624,1.376237624,1.376237624,1.376237624,1.376237624,1.376237624,1.376237624,1.376237624,1.376237624,1.376237624,1.376237624,1.376237624,1.376237624,1.376237624,1.376237624,1.376237624,1.376237624,1.376237624,1.376237624,1.376237624,1.376237624,1.376237624,1.376237624,1.376237624,1.376237624,1.376237624,1.376237624,1.376237624,1.376237624,1.376237624,1.376237624,1.376237624,1.376237624,1.376237624,1.376237624,1.376237624,1.376237624,1.376237624,1.376237624,1.376237624,1.376237624,1.376237624,1.376237624,1.376237624,1.376237624,1.376237624,1.376237624,1.376237624,1.376237624,1.376237624,1.376237624,1.376237624,1.376237624
Liaoning,1.75049505,1.75049505,1.75049505,1.75049505,1.75049505,1.75049505,1.75049505,1.75049505,1.75049505,1.75049505,1.75049505,1.75049505,1.75049505,1.75049505,1.75049505,1.75049505,1.75049505,1.75049505,1.75049505,1.75049505,1.75049505,1.75049505,1.75049505,1.75049505,1.75049505,1.75049505,1.75049505,1.75049505,1.75049505,1.75049505,1.75049505,1.75049505,1.75049505,1.75049505,1.75049505,1.75049505,1.75049505,1.75049505,1.75049505,1.75049505,1.75049505,1.75049505,1.75049505,1.75049505,1.75049505,1.75049505,1.75049505,1.75049505,1.75049505,1.75049505,1.75049505,1.75049505,1.75049505,1.75049505,1.75049505,1.75049505,1.75049505,1.75049505,1.75049505,1.75049505,1.75049505,1.75049505,1.75049505,1.75049505,1.75049505,1.75049505,1.75049505,1.75049505,1.75049505,1.75049505,1.75049505,1.75049505,1.75049505,1.75049505,1.75049505,1.75049505,1.75049505,1.75049505,1.75049505,1.75049505,1.75049505,1.75049505,1.75049505,1.75049505,1.75049505,1.75049505,1.75049505,1.75049505,1.75049505,1.75049505,1.75049505,1.75049505,1.75049505,1.75049505,1.75049505,1.75049505,1.75049505,1.75049505,1.75049505,1.75049505,1.75049505
Ningxia,0.037623762,0.037623762,0.037623762,0.037623762,0.037623762,0.037623762,0.037623762,0.037623762,0.037623762,0.037623762,0.037623762,0.037623762,0.037623762,0.037623762,0.037623762,0.037623762,0.037623762,0.037623762,0.037623762,0.037623762,0.037623762,0.037623762,0.037623762,0.037623762,0.037623762,0.037623762,0.037623762,0.037623762,0.037623762,0.037623762,0.037623762,0.037623762,0.037623762,0.037623762,0.037623762,0.037623762,0.037623762,0.037623762,0.037623762,0.037623762,0.037623762,0.037623762,0.037623762,0.037623762,0.037623762,0.037623762,0.037623762,0.037623762,0.037623762,0.037623762,0.037623762,0.037623762,0.037623762,0.037623762,0.037623762,0.037623762,0.037623762,0.037623762,0.037623762,0.037623762,0.037623762,0.037623762,0.037623762,0.037623762,0.037623762,0.037623762,0.037623762,0.037623762,0.037623762,0.037623762,0.037623762,0.037623762,0.037623762,0.037623762,0.037623762,0.037623762,0.037623762,0.037623762,0.037623762,0.037623762,0.037623762,0.037623762,0.037623762,0.037623762,0.037623762,0.037623762,0.037623762,0.037623762,0.037623762,0.037623762,0.037623762,0.037623762,0.037623762,0.037623762,0.037623762,0.037623762,0.037623762,0.037623762,0.037623762,0.037623762,0.037623762
Qinghai,0.03960396,0.03960396,0.03960396,0.03960396,0.03960396,0.03960396,0.03960396,0.03960396,0.03960396,0.03960396,0.03960396,0.03960396,0.03960396,0.03960396,0.03960396,0.03960396,0.03960396,0.03960396,0.03960396,0.03960396,0.03960396,0.03960396,0.03960396,0.03960396,0.03960396,0.03960396,0.03960396,0.03960396,0.03960396,0.03960396,0.03960396,0.03960396,0.03960396,0.03960396,0.03960396,0.03960396,0.03960396,0.03960396,0.03960396,0.03960396,0.03960396,0.03960396,0.03960396,0.03960396,0.03960396,0.03960396,0.03960396,0.03960396,0.03960396,0.03960396,0.03960396,0.03960396,0.03960396,0.03960396,0.03960396,0.03960396,0.03960396,0.03960396,0.03960396,0.03960396,0.03960396,0.03960396,0.03960396,0.03960396,0.03960396,0.03960396,0.03960396,0.03960396,0.03960396,0.03960396,0.03960396,0.03960396,0.03960396,0.03960396,0.03960396,0.03960396,0.03960396,0.03960396,0.03960396,0.03960396,0.03960396,0.03960396,0.03960396,0.03960396,0.03960396,0.03960396,0.03960396,0.03960396,0.03960396,0.03960396,0.03960396,0.03960396,0.03960396,0.03960396,0.03960396,0.03960396,0.03960396,0.03960396,0.03960396,0.03960396,0.03960396
Shaanxi,0.146534653,0.146534653,0.146534653,0.146534653,0.146534653,0.146534653,0.146534653,0.146534653,0.146534653,0.146534653,0.146534653,0.146534653,0.146534653,0.146534653,0.146534653,0.146534653,0.146534653,0.146534653,0.146534653,0.146534653,0.146534653,0.146534653,0.146534653,0.146534653,0.146534653,0.146534653,0.146534653,0.146534653,0.146534653,0.146534653,0.146534653,0.146534653,0.146534653,0.146534653,0.146534653,0.146534653,0.146534653,0.146534653,0.146534653,0.146534653,0.146534653,0.146534653,0.146534653,0.146534653,0.146534653,0.146534653,0.146534653,0.146534653,0.146534653,0.146534653,0.146534653,0.146534653,0.146534653,0.146534653,0.146534653,0.146534653,0.146534653,0.146534653,0.146534653,0.146534653,0.146534653,0.146534653,0.146534653,0.146534653,0.146534653,0.146534653,0.146534653,0.146534653,0.146534653,0.146534653,0.146534653,0.146534653,0.146534653,0.146534653,0.146534653,0.146534653,0.146534653,0.146534653,0.146534653,0.146534653,0.146534653,0.146534653,0.146534653,0.146534653,0.146534653,0.146534653,0.146534653,0.146534653,0.146534653,0.146534653,0.146534653,0.146534653,0.146534653,0.146534653,0.146534653,0.146534653,0.146534653,0.146534653,0.146534653,0.146534653,0.146534653
Shandong,1.122772277,1.122772277,1.122772277,1.122772277,1.122772277,1.122772277,1.122772277,1.122772277,1.122772277,1.122772277,1.122772277,1.122772277,1.122772277,1.122772277,1.122772277,1.122772277,1.122772277,1.122772277,1.122772277,1.122772277,1.122772277,1.122772277,1.122772277,1.122772277,1.122772277,1.122772277,1.122772277,1.122772277,1.122772277,1.122772277,1.122772277,1.122772277,1.122772277,1.122772277,1.122772277,1.122772277,1.122772277,1.122772277,1.122772277,1.122772277,1.122772277,1.122772277,1.122772277,1.122772277,1.122772277,1.122772277,1.122772277,1.122772277,1.122772277,1.122772277,1.122772277,1.122772277,1.122772277,1.122772277,1.122772277,1.122772277,1.122772277,1.122772277,1.122772277,1.122772277,1.122772277,1.122772277,1.122772277,1.122772277,1.122772277,1.122772277,1.122772277,1.122772277,1.122772277,1.122772277,1.122772277,1.122772277,1.122772277,1.122772277,1.122772277,1.122772277,1.122772277,1.122772277,1.122772277,1.122772277,1.122772277,1.122772277,1.122772277,1.122772277,1.122772277,1.122772277,1.122772277,1.122772277,1.122772277,1.122772277,1.122772277,1.122772277,1.122772277,1.122772277,1.122772277,1.122772277,1.122772277,1.122772277,1.122772277,1.122772277,1.122772277
Shanghai,6.56039604,6.56039604,6.56039604,6.56039604,6.56039604,6.56039604,6.56039604,6.56039604,6.56039604,6.56039604,6.56039604,6.56039604,6.56039604,6.56039604,6.56039604,6.56039604,6.56039604,6.56039604,6.56039604,6.56039604,6.56039604,6.56039604,6.56039604,6.56039604,6.56039604,6.56039604,6.56039604,6.56039604,6.56039604,6.56039604,6.56039604,6.56039604,6.56039604,6.56039604,6.56039604,6.56039604,6.56039604,6.56039604,6.56039604,6.56039604,6.56039604,6.56039604,6.56039604,6.56039604,6.56039604,6.56039604,6.56039604,6.56039604,6.56039604,6.56039604,6.56039604,6.56039604,6.56039604,6.56039604,6.56039604,6.56039604,6.56039604,6.56039604,6.56039604,6.56039604,6.56039604,6.56039604,6.56039604,6.56039604,6.56039604,6.56039604,6.56039604,6.56039604,6.56039604,6.56039604,6.56039604,6.56039604,6.56039604,6.56039604,6.56039604,6.56039604,6.56039604,6.56039604,6.56039604,6.56039604,6.56039604,6.56039604,6.56039604,6.56039604,6.56039604,6.56039604,6.56039604,6.56039604,6.56039604,6.56039604,6.56039604,6.56039604,6.56039604,6.56039604,6.56039604,6.56039604,6.56039604,6.56039604,6.56039604,6.56039604,6.56039604
Shanxi,0.073267327,0.073267327,0.073267327,0.073267327,0.073267327,0.073267327,0.073267327,0.073267327,0.073267327,0.073267327,0.073267327,0.073267327,0.073267327,0.073267327,0.073267327,0.073267327,0.073267327,0.073267327,0.073267327,0.073267327,0.073267327,0.073267327,0.073267327,0.073267327,0.073267327,0.073267327,0.073267327,0.073267327,0.073267327,0.073267327,0.073267327,0.073267327,0.073267327,0.073267327,0.073267327,0.073267327,0.073267327,0.073267327,0.073267327,0.073267327,0.073267327,0.073267327,0.073267327,0.073267327,0.073267327,0.073267327,0.073267327,0.073267327,0.073267327,0.073267327,0.073267327,0.073267327,0.073267327,0.073267327,0.073267327,0.073267327,0.073267327,0.073267327,0.073267327,0.073267327,0.073267327,0.073267327,0.073267327,0.073267327,0.073267327,0.073267327,0.073267327,0.073267327,0.073267327,0.073267327,0.073267327,0.073267327,0.073267327,0.073267327,0.073267327,0.073267327,0.073267327,0.073267327,0.073267327,0.073267327,0.073267327,0.073267327,0.073267327,0.073267327,0.073267327,0.073267327,0.073267327,0.073267327,0.073267327,0.073267327,0.073267327,0.073267327,0.073267327,0.073267327,0.073267327,0.073267327,0.073267327,0.073267327,0.073267327,0.073267327,0.073267327
Sichuan,0.499009901,0.499009901,0.499009901,0.499009901,0.499009901,0.499009901,0.499009901,0.499009901,0.499009901,0.499009901,0.499009901,0.499009901,0.499009901,0.499009901,0.499009901,0.499009901,0.499009901,0.499009901,0.499009901,0.499009901,0.499009901,0.499009901,0.499009901,0.499009901,0.499009901,0.499009901,0.499009901,0.499009901,0.499009901,0.499009901,0.499009901,0.499009901,0.499009901,0.499009901,0.499009901,0.499009901,0.499009901,0.499009901,0.499009901,0.499009901,0.499009901,0.499009901,0.499009901,0.499009901,0.499009901,0.499009901,0.499009901,0.499009901,0.499009901,0.499009901,0.499009901,0.499009901,0.499009901,0.499009901,0.499009901,0.499009901,0.499009901,0.499009901,0.499009901,0.499009901,0.499009901,0.499009901,0.499009901,0.499009901,0.499009901,0.499009901,0.499009901,0.499009901,0.499009901,0.499009901,0.499009901,0.499009901,0.499009901,0.499009901,0.499009901,0.499009901,0.499009901,0.499009901,0.499009901,0.499009901,0.499009901,0.499009901,0.499009901,0.499009901,0.499009901,0.499009901,0.499009901,0.499009901,0.499009901,0.499009901,0.499009901,0.499009901,0.499009901,0.499009901,0.499009901,0.499009901,0.499009901,0.499009901,0.499009901,0.499009901,0.499009901
Tianjin,0.461386139,0.461386139,0.461386139,0.461386139,0.461386139,0.461386139,0.461386139,0.461386139,0.461386139,0.461386139,0.461386139,0.461386139,0.461386139,0.461386139,0.461386139,0.461386139,0.461386139,0.461386139,0.461386139,0.461386139,0.461386139,0.461386139,0.461386139,0.461386139,0.461386139,0.461386139,0.461386139,0.461386139,0.461386139,0.461386139,0.461386139,0.461386139,0.461386139,0.461386139,0.461386139,0.461386139,0.461386139,0.461386139,0.461386139,0.461386139,0.461386139,0.461386139,0.461386139,0.461386139,0.461386139,0.461386139,0.461386139,0.461386139,0.461386139,0.461386139,0.461386139,0.461386139,0.461386139,0.461386139,0.461386139,0.461386139,0.461386139,0.461386139,0.461386139,0.461386139,0.461386139,0.461386139,0.461386139,0.461386139,0.461386139,0.461386139,0.461386139,0.461386139,0.461386139,0.461386139,0.461386139,0.461386139,0.461386139,0.461386139,0.461386139,0.461386139,0.461386139,0.461386139,0.461386139,0.461386139,0.461386139,0.461386139,0.461386139,0.461386139,0.461386139,0.461386139,0.461386139,0.461386139,0.461386139,0.461386139,0.461386139,0.461386139,0.461386139,0.461386139,0.461386139,0.461386139,0.461386139,0.461386139,0.461386139,0.461386139,0.461386139
Tibet,0,0,0,0,0,0,0,0,0,0,0,0,0,0,0,0,0,0,0,0,0,0,0,0,0,0,0,0,0,0,0,0,0,0,0,0,0,0,0,0,0,0,0,0,0,0,0,0,0,0,0,0,0,0,0,0,0,0,0,0,0,0,0,0,0,0,0,0,0,0,0,0,0,0,0,0,0,0,0,0,0,0,0,0,0,0,0,0,0,0,0,0,0,0,0,0,0,0,0,0,0
Xinjiang,0.138613861,0.138613861,0.138613861,0.138613861,0.138613861,0.138613861,0.138613861,0.138613861,0.138613861,0.138613861,0.138613861,0.138613861,0.138613861,0.138613861,0.138613861,0.138613861,0.138613861,0.138613861,0.138613861,0.138613861,0.138613861,0.138613861,0.138613861,0.138613861,0.138613861,0.138613861,0.138613861,0.138613861,0.138613861,0.138613861,0.138613861,0.138613861,0.138613861,0.138613861,0.138613861,0.138613861,0.138613861,0.138613861,0.138613861,0.138613861,0.138613861,0.138613861,0.138613861,0.138613861,0.138613861,0.138613861,0.138613861,0.138613861,0.138613861,0.138613861,0.138613861,0.138613861,0.138613861,0.138613861,0.138613861,0.138613861,0.138613861,0.138613861,0.138613861,0.138613861,0.138613861,0.138613861,0.138613861,0.138613861,0.138613861,0.138613861,0.138613861,0.138613861,0.138613861,0.138613861,0.138613861,0.138613861,0.138613861,0.138613861,0.138613861,0.138613861,0.138613861,0.138613861,0.138613861,0.138613861,0.138613861,0.138613861,0.138613861,0.138613861,0.138613861,0.138613861,0.138613861,0.138613861,0.138613861,0.138613861,0.138613861,0.138613861,0.138613861,0.138613861,0.138613861,0.138613861,0.138613861,0.138613861,0.138613861,0.138613861,0.138613861
Yunnan,2.231683168,2.231683168,2.231683168,2.231683168,2.231683168,2.231683168,2.231683168,2.231683168,2.231683168,2.231683168,2.231683168,2.231683168,2.231683168,2.231683168,2.231683168,2.231683168,2.231683168,2.231683168,2.231683168,2.231683168,2.231683168,2.231683168,2.231683168,2.231683168,2.231683168,2.231683168,2.231683168,2.231683168,2.231683168,2.231683168,2.231683168,2.231683168,2.231683168,2.231683168,2.231683168,2.231683168,2.231683168,2.231683168,2.231683168,2.231683168,2.231683168,2.231683168,2.231683168,2.231683168,2.231683168,2.231683168,2.231683168,2.231683168,2.231683168,2.231683168,2.231683168,2.231683168,2.231683168,2.231683168,2.231683168,2.231683168,2.231683168,2.231683168,2.231683168,2.231683168,2.231683168,2.231683168,2.231683168,2.231683168,2.231683168,2.231683168,2.231683168,2.231683168,2.231683168,2.231683168,2.231683168,2.231683168,2.231683168,2.231683168,2.231683168,2.231683168,2.231683168,2.231683168,2.231683168,2.231683168,2.231683168,2.231683168,2.231683168,2.231683168,2.231683168,2.231683168,2.231683168,2.231683168,2.231683168,2.231683168,2.231683168,2.231683168,2.231683168,2.231683168,2.231683168,2.231683168,2.231683168,2.231683168,2.231683168,2.231683168,2.231683168
Zhejiang,6.651485149,6.651485149,6.651485149,6.651485149,6.651485149,6.651485149,6.651485149,6.651485149,6.651485149,6.651485149,6.651485149,6.651485149,6.651485149,6.651485149,6.651485149,6.651485149,6.651485149,6.651485149,6.651485149,6.651485149,6.651485149,6.651485149,6.651485149,6.651485149,6.651485149,6.651485149,6.651485149,6.651485149,6.651485149,6.651485149,6.651485149,6.651485149,6.651485149,6.651485149,6.651485149,6.651485149,6.651485149,6.651485149,6.651485149,6.651485149,6.651485149,6.651485149,6.651485149,6.651485149,6.651485149,6.651485149,6.651485149,6.651485149,6.651485149,6.651485149,6.651485149,6.651485149,6.651485149,6.651485149,6.651485149,6.651485149,6.651485149,6.651485149,6.651485149,6.651485149,6.651485149,6.651485149,6.651485149,6.651485149,6.651485149,6.651485149,6.651485149,6.651485149,6.651485149,6.651485149,6.651485149,6.651485149,6.651485149,6.651485149,6.651485149,6.651485149,6.651485149,6.651485149,6.651485149,6.651485149,6.651485149,6.651485149,6.651485149,6.651485149,6.651485149,6.651485149,6.651485149,6.651485149,6.651485149,6.651485149,6.651485149,6.651485149,6.651485149,6.651485149,6.651485149,6.651485149,6.651485149,6.651485149,6.651485149,6.651485149,6.651485149
